Save PDFs with custom fonts • camcorder
…
gg_record(
  dir = file.path(tempdir(), "recording"), 
  device = cairo_pdf, # we need to set the Cairo device
  width = 8,
  height = 5
)

Mac users should ensure that XQuartz is installed which is needed to use the cairo pdf device.

To supply custom fonts in R, the respective font needs to be installed locally on the system.

You can make sure the font file is installed by using the system_fonts() from the latest standard, the {systemfont} package:

systemfonts::system_fonts()
#> # A tibble: 92 × 9
#>    path                     index name  family style weight width italic monos…¹
#>    <chr>                    <int> <chr> <chr>  <chr> <ord>  <ord> <lgl>  <lgl>  
#>  1 /usr/share/fonts/truety…     0 Lato… Lato   Thin… ultra… norm… TRUE   FALSE  
#>  2 /usr/share/fonts/truety…     0 Libe… Liber… Bold  bold   norm… FALSE  FALSE  
#>  3 /usr/share/fonts/type1/…     0 Nimb… Nimbu… Regu… normal norm… TRUE   FALSE  
#>  4 /usr/share/fonts/type1/…     0 URWB… URW B… Ligh… normal norm… TRUE   FALSE  
#>  5 /usr/share/fonts/truety…     0 Lato… Lato   Semi… semib… norm… TRUE   FALSE  
#>  6 /usr/share/fonts/truety…     0 Libe… Liber… Bold  bold   norm… FALSE  TRUE   
#>  7 /usr/share/fonts/truety…     0 Lato… Lato   Medi… medium norm… TRUE   FALSE  
#>  8 /usr/share/fonts/type1/…     0 URWG… URW G… Demi  semib… norm… FALSE  FALSE  
#>  9 /usr/share/fonts/truety…     0 Deja… DejaV… Ital… normal norm… TRUE   FALSE  
#> 10 /usr/share/fonts/truety…     0 Libe… Liber… Ital… normal norm… TRUE   TRUE   
#> # … with 82 more rows, and abbreviated variable name ¹​monospace
…
